{
	"1910s": [
		{"Year":1919,"Title":"Edwards Vacuum Founded","Body":"Physicist F.D. Edwards began importing vacuum equipment and established an equipment and service business from his office in South London, England.","Photo":"P1","Category":"historic"}
	],
	"1920s": [
		{"Year":1920,"Title":"Partnership Business Established","Body":"F.D. Edwards was joined by his father, W. Edwards and another partner, in importing vacuum equipment from America, France and Germany.  The first industrial customers were manufacturers of electric lamps and valves.","Photo":"","Category":"biography"}
	],
	"1930s": [
		{"Year":1934,"Title":"Edwards Adds To Team","Body":"Now with 12 full time employees, Edwards moved his offices to Brixton, London.","Photo":"","Category":"geographic"},
		{"Year":1937,"Title":"Speedivac Pump Design Launched","Body":"A large oil sealed box with a ball bearing exhaust valve and fixed steel cone inlet.","Photo":"P3","Category":"innovation"},
		{"Year":1939,"Title":"Rapid Expansion And UK Manufacturing Begins","Body":"After the outbreak of WW2, vacuum pumps could no longer be sourced from Europe.  This saw the establishment of the vacuum industry in the UK with full government support.  Production of rotary vane pumps began.","Photo":"P4","Category":"finance"}
	],
	"1940s": [
		{"Year":1940,"Title":"Edwards Becomes A Limited Company","Body":"Edwards formed as a privately owned limited company named W. Edwards & Co. (London) Ltd.","Photo":"","Category":"finance"},
		{"Year":1941,"Title":"Vacuum As An Unsung War Hero","Body":"Glass coating techniques radically improved binocular, tank and aeroplane sights, infrared systems introduced for accurate night-tme bombing or shelling and foil coating \"chaff\" to confuse enemy radar systems.","Photo":"P5","Category":"innovation"},
		{"Year":1942,"Title":"Edwards Makes A Move","Body":"Premises moved to Sydenham, London, employing around 300 people.","Photo":"P6","Category":"geographic"},
		{"Year":1946,"Title":"Speedivac 1A Pump Launched","Body":"The first post –WW2 pump development was the Speedivac 1A Pump with reduced dimension in comparison to the original Speedivac but still using the fixed steel cone inlet.","Photo":"P7","Category":"innovation"}
	],
	"1950s": [
		{"Year":1952,"Title":"First International Establishment","Body":"Edwards High Vacuum Canada Ltd. established in Oakville, Ontario.","Photo":"P8","Category":"geographic"},
		{"Year":1953,"Title":"New UK HQ And Factory","Body":"Edwards moved to Crawley, West Sussex with 470 employees, with an increase to 1000 by 1960.","Photo":"P9","Category":"geographic"},
		{"Year":1954,"Title":"Edwards Becomes Public Company","Body":"Edwards officially became Edwards High Vacuum Ltd.  Edwards Instruments Ltd was also formed at the Crawley site in the UK.","Photo":"","Category":"finance"}
	],
	"1960s": [
		{"Year":1962,"Title":"F.D. Edwards, CBE","Body":"F.D. Edwards was made a Commander of the  Order of the British Empire by her Majesty The Queen, for his services to British industry and its exports.","Photo":"","Category":"biography"},
		{"Year":1965,"Title":"Introduction Of The Speedivac ES75","Body":"The new Speedivac was the largest model in the range but featured a compact design with a side mounted motor, dynamic balance and a magnetic control valve.","Photo":"P10","Category":"innovation"},
		{"Year":1967,"Title":"First Queens Award","Body":"Edwards was awarded the Queens award for technical innovation.","Photo":"","Category":"innovation"},
		{"Year":1968,"Title":"Edwards Acquired By BOC","Body":"Edwards was bought by British gases giant BOC, which prompted international expansion, perhaps most importantly in Japan.","Photo":"P11","Category":"mergers"}
	],
	"1970s": [
		{"Year":1972,"Title":"Diffstak","Body":"Edwards patented the Diffstak integrated diffusion pump and high vacuum valve.","Photo":"","Category":"innovation"},
		{"Year":1975,"Title":"Edwards Fully Established As One Of The Leading Vacuum Equipment Providers In The World","Body":"In a 1975 report, Edwards stated that they were now shipping to over 75 countries, with encouraging market shares; of 500 companies in the vacuum business, Edwards owned an 8% share of the world market, 15% of the european market and an astonishing 70% of the UK market.","Photo":"","Category":"finance"}
	],
	"1980s": [
		{"Year":1984,"Title":"Edwards Patents Drystar Dry Vacuum Pump","Body":"An oil free pump was a huge technological step forward, reducing risk of contamination in a business fanatical about cleanliness.  It became a huge success.","Photo":"P14","Category":"innovation"},
		{"Year":1987,"Title":"Established Distribution Agreement With Seiko Seiki","Body":"Seiko Seiki manufactured magnetically suspended turbomolecular pumps; With low vibration and no bearing wear it was a major breakthrough.","Photo":"P15","Category":"historic"}
	],
	"1990s": [
		{"Year":1990,"Title":"Edwards Enters The Abatement Business","Body":"Dealing with difficult and dangerous gases from semiconductor manufacture was seen as a natural complement to the business.  Edwards acquired a small start-up company focused on exhaust gases.  This signaled the birth of the highly successful Edwards abatement business.","Photo":"","Category":"mergers"},
		{"Year":1992,"Title":"ISO9001 Certification","Body":"Edwards UK factory achieves ISO9001 certification.","Photo":"","Category":"historic"},
		{"Year":1994,"Title":"New Locations In Asia","Body":"4000m2 facility opened in Nagano, Japan.  2500m2 facility opened in Cheonan City, Korea.","Photo":"P16","Category":"geographic"},
		{"Year":1996,"Title":"New Burgess Hill Facility","Body":"A new 3700m2 facility was built in Burgess Hill, UK, exclusively for the development and production of high speed machines.  During the build, construction workers discovered a quantity of pottery deep underground, later identified as remnants of Roman kitchenware!","Photo":"P17","Category":"geographic"},
		{"Year":1999,"Title":"A Series Of Strategic Acquisitions Begins","Body":"Edwards acquired a number of companies through the late 90s that strengthened business scope and prospects.  These included the vacuum and pressure division of US based Smiths Group, which included Stokes, Hargreaves and Hibon.  Chemical Management and dispensing companies were also brought into the Edwards family as well as liquid abatement business Hydromatix.","Photo":"P18","Category":"mergers"}
	],
	"2000s": [
		{"Year":2001,"Title":"Samsung Selects Edwards For Flat Panel Display Production","Body":"Vacuum processing is used in all flat panel displays.  This includes Plasma Display Panels (PDP), Liquid crystal Displays (LCDs) and Organic Light Emitting Diode (OLED) displays.","Photo":"","Category":"innovation"},
		{"Year":2006,"Title":"Formation Of Linde Group","Body":"BOC Group acquired by Linde AG to form Linde Group and sells Hibon to Ingersoll-Rand (now owned by Atlas Copco as of 2004).","Photo":"","Category":"mergers"},
		{"Year":2007,"Title":"Edwards Bought By CCMP","Body":"CCMP Capital, a private equity company bought the current business, and Edwards High Vacuum became known simply as Edwards.","Photo":"","Category":"mergers"},
		{"Year":2008,"Title":"Announces IXH NEXT-Generation Vacuum Pump","Body":"","Photo":"P19","Category":"innovation"},
		{"Year":2009,"Title":"Launches Next Turbomolecular Pumps","Body":"Setting a new benchmark for scientific turbopumps, nEXT offers the best turbopump for performance, reliability and end user serviceability.","Photo":"P20","Category":"innovation"}
	],
	"2010s": [
		{"Year":2010,"Title":"Launches GXS Dry Screw Pump","Body":"GXS industrial dry screw pump range launched, offering intelligent pumping for many industrial applications.","Photo":"P31","Category":"innovation"},
		{"Year":2011,"Title":"Grand Openings Of State Of The Art Facilities","Body":"New C3 manufacturing facility in Korea.","Photo":"P21","Category":"geographic"},
		{"Year":2011,"Title":"Launch of CXS Chemical Dry Vacuum Pump","Body":"With exceptional energy efficiency and performance, the CXS offers high reliability in the harshest of chemical and pharmaceutical processing applications.","Photo":"P22","Category":"innovation"},
		{"Year":2012,"Title":"Edwards Goes Public","Body":"Edwards list on the NASDAQ Stock Exchange, New York.","Photo":"P24","Category":"finance"},
		{"Year":2012,"Title":"Opens New US HQ In Sanborn, New York","Body":"Brand new facility built just 20 minutes from Niagara Falls.","Photo":"P25","Category":"geographic"},
		{"Year":2012,"Title":"Launches NXDS Dry Scroll Pump","Body":"With exceptional capabilities, the nXDS is the best performing pump in its class.","Photo":"P23","Category":"innovation"},
		{"Year":2012,"Title":"Queens Award For Enterprise: Innovation","Body":"Awarded to the nEXT Turbomolecular Pump.","Photo":"P26","Category":"innovation"},
		{"Year":2012,"Title":"Edwards Reaches A Significant Milestone","Body":"Delivery of its 10,000th abatement system.","Photo":"P27","Category":"historic"},
		{"Year":2013,"Title":"Edwards Acquires Gamma Vacuum","Body":"A market leader in the design, manufacture and service of Ultra High Vacuum (UHV) pumps.","Photo":"P28","Category":"mergers"},
		{"Year":2014,"Title":"Edwards Vacuum Acquired By Atlas Copco","Body":"With the objective of becoming the undisputed leader in vacuum and abatement solutions, Atlas Copco acquires Edwards, with plans both to develop the existing business and expand into utility vacuum.","Photo":"","Category":"mergers"}
	]
}